<?xml version="1.0" encoding="utf-8"?>
<!-- Generator: Adobe Illustrator 18.1.1, SVG Export Plug-In . SVG Version: 6.00 Build 0)  -->
<svg version="1.1" id="Layer_1" xmlns="http://www.w3.org/2000/svg" xmlns:xlink="http://www.w3.org/1999/xlink" x="0px" y="0px"
	 viewBox="0 0 7.3 3.9" enable-background="new 0 0 7.3 3.9" xml:space="preserve">
<polyline fill="none" stroke="#8F8F8F" stroke-linecap="round" stroke-linejoin="round" stroke-miterlimit="10" points="0.5,0.5 
	3.8,3.4 6.8,0.5 "/>
</svg>
