<?xml version="1.0" encoding="utf-8"?>
<!-- Generator: Adobe Illustrator 18.1.1, SVG Export Plug-In . SVG Version: 6.00 Build 0)  -->
<svg version="1.1" id="Layer_1" xmlns="http://www.w3.org/2000/svg" xmlns:xlink="http://www.w3.org/1999/xlink" x="0px" y="0px"
	 viewBox="0 0 230.3 14.5" enable-background="new 0 0 230.3 14.5" xml:space="preserve">
<g opacity="0.5">
	<g>
		<path fill="#E9E9E8" d="M226.3,14H4c-2.2,0-4-1.8-4-4V4c0-2.2,1.8-4,4-4h222.3c2.2,0,4,1.8,4,4v6C230.3,12.2,228.5,14,226.3,14z"
			/>
	</g>
	<g>
		<path fill="#F4F2F1" d="M226.3,14.5H4c-2.2,0-4-1.8-4-4v-6c0-2.2,1.8-4,4-4h222.3c2.2,0,4,1.8,4,4v6
			C230.3,12.7,228.5,14.5,226.3,14.5z"/>
	</g>
</g>
<path fill="#8A8E90" d="M223.7,7.3L6.6,7.3c-0.6,0-1.2-0.5-1.2-1.2V5.8c0-0.6,0.5-1.2,1.2-1.2l217.1,0c0.6,0,1.2,0.5,1.2,1.2v0.3
	C224.9,6.8,224.4,7.3,223.7,7.3z"/>
</svg>
