<?xml version="1.0" encoding="utf-8"?>
<!-- Generator: Adobe Illustrator 18.1.1, SVG Export Plug-In . SVG Version: 6.00 Build 0)  -->
<svg version="1.1" id="Layer_1" xmlns="http://www.w3.org/2000/svg" xmlns:xlink="http://www.w3.org/1999/xlink" x="0px" y="0px"
	 viewBox="0 0 150 150.7" enable-background="new 0 0 150 150.7" xml:space="preserve">
<circle fill="#D8EBCE" cx="75" cy="75.7" r="75"/>
<polygon fill="#FFFFFF" points="69.5,81 41.6,66.3 39.8,61.9 75,42.9 108.4,62.9 108.4,66.3 81.9,82.2 75,76.2 "/>
<polygon fill="#E3F1DC" points="40.5,65.5 39.8,109.7 109.4,109.7 108.4,64.2 80.9,82.2 75,77.5 69.5,82.2 "/>
<g>
	<path fill="#75B05A" d="M39.8,61.9v48.7h70.3V61.9L75,40.9L39.8,61.9z M41.6,66.3l26.5,15.9l-26.5,23.2V66.3z M40.4,108.8L75,78.7
		l34.6,30.1H40.4z M81.9,82.2l26.5-15.9v39.1L81.9,82.2z M108.4,64.2L80.5,81L75,76.2L69.5,81L41.6,64.2v-1.4l33.4-20l33.4,20V64.2z
		"/>
</g>
</svg>
